[
  {
    "uri": "features/specs/Adyen/Metodo_pagamento/consulta_metodos_pagamentos.feature",
    "id": "consultar-todos-os-métodos-de-pagamentos-disponíveis-pela-adyen.",
    "keyword": "Funcionalidade",
    "name": "Consultar todos os métodos de pagamentos disponíveis pela Adyen.",
    "description": "",
    "line": 3,
    "tags": [
      {
        "name": "@consultar_metodos_pagamento",
        "line": 2
      }
    ],
    "elements": [
      {
        "id": "consultar-todos-os-métodos-de-pagamentos-disponíveis-pela-adyen.;consultar-todos-os-métodos-de-pagamentos---status-code:-200",
        "keyword": "Cenário",
        "name": "Consultar todos os métodos de pagamentos - Status Code: 200",
        "description": "",
        "line": 6,
        "type": "scenario",
        "tags": [
          {
            "name": "@consultar_metodos_pagamento",
            "line": 2
          },
          {
            "name": "@consultar_metodos",
            "line": 5
          }
        ],
        "before": [
          {
            "match": {
              "location": "capybara-3.29.0/lib/capybara/cucumber.rb:14"
            },
            "result": {
              "status": "passed",
              "duration": 31000
            }
          },
          {
            "match": {
              "location": "capybara-3.29.0/lib/capybara/cucumber.rb:22"
            },
            "result": {
              "status": "passed",
              "duration": 29000
            }
          },
          {
            "match": {
              "location": "features/support/hooks.rb:4"
            },
            "result": {
              "status": "passed",
              "duration": 76000
            }
          },
          {
            "match": {
              "location": "features/support/hooks.rb:136"
            },
            "result": {
              "status": "passed",
              "duration": 57000
            }
          }
        ],
        "steps": [
          {
            "keyword": "Dado ",
            "name": "que faço a consulta na API",
            "line": 7,
            "output": [
              "URL de Consulta: https://pf6hyb99x4.execute-api.us-east-1.amazonaws.com/stage/paymentMethods"
            ],
            "match": {
              "location": "features/step_definitions/metodo_pagamento_steps.rb:1"
            },
            "result": {
              "status": "passed",
              "duration": 3644901000
            }
          },
          {
            "keyword": "Então ",
            "name": "Recebo o retorno com status code \"200\" e todos os métodos de pagamento disponíveis",
            "line": 8,
            "output": [
              "Status Code: 200 OK",
              "Body Resposta - Métodos de Pagamento disponíveis:",
              "--------------------",
              "[\n  {\n    \"code\": \"mc\",\n    \"type\": \"credit_card\",\n    \"brand\": \"Mastercard\",\n    \"logo\": \"https://media.appbk.burgerking.com.br/card_logos/mastercard.png\"\n  },\n  {\n    \"code\": \"visa\",\n    \"type\": \"credit_card\",\n    \"brand\": \"Visa\",\n    \"logo\": \"https://media.appbk.burgerking.com.br/card_logos/visa.png\"\n  },\n  {\n    \"code\": \"elo\",\n    \"type\": \"credit_card\",\n    \"brand\": \"Elo\",\n    \"logo\": \"https://media.appbk.burgerking.com.br/card_logos/elo.png\"\n  },\n  {\n    \"code\": \"amex\",\n    \"type\": \"credit_card\",\n    \"brand\": \"American Express\",\n    \"logo\": \"https://media.appbk.burgerking.com.br/card_logos/amex.png\"\n  },\n  {\n    \"code\": \"hipercard\",\n    \"type\": \"credit_card\",\n    \"brand\": \"Hipercard\",\n    \"logo\": \"https://media.appbk.burgerking.com.br/card_logos/hipercard.png\"\n  }\n]",
              "--------------------"
            ],
            "match": {
              "location": "features/step_definitions/metodo_pagamento_steps.rb:8"
            },
            "result": {
              "status": "passed",
              "duration": 2491000
            }
          }
        ],
        "after": [
          {
            "match": {
              "location": "capybara-3.29.0/lib/capybara/cucumber.rb:10"
            },
            "result": {
              "status": "passed",
              "duration": 31000
            }
          }
        ]
      }
    ]
  }
]