launch_status failed=0 1573061025000000000
launch_status broken=0 1573061025000000000
launch_status passed=1 1573061025000000000
launch_status skipped=0 1573061025000000000
launch_status unknown=0 1573061025000000000
launch_time duration=53414 1573061025000000000
launch_time min_duration=53414 1573061025000000000
launch_time max_duration=53414 1573061025000000000
launch_time sum_duration=53414 1573061025000000000
launch_retries retries=0 1573061025000000000
launch_retries run=1 1573061025000000000
