{
  "e7b8da48578af6252b7c60c720bbf0d5" : {
    "statistic" : {
      "failed" : 0,
      "broken" : 0,
      "skipped" : 0,
      "passed" : 1,
      "unknown" : 0,
      "total" : 1
    },
    "items" : [ {
      "uid" : "bb002f23fbe5accd",
      "status" : "passed",
      "time" : {
        "start" : 1573055699386,
        "stop" : 1573055752800,
        "duration" : 53414
      }
    } ]
  }
}